{
  "timeline": [
    {
      "type": "add_holds",
      "holds": ["effects"]
    },
    {
      "type": "animation",
      "animation": ["stunspore", "status"],
      "delay": 1.15
    },
    {
      "type": "entity_particles",
      "effect": "cobblemon:stunspore",
      "locators": ["target"]
    },
    {
      "type": "entity_particles",
      "effect": "cobblemon:stunspore_cloud",
      "locators": ["target"],
      "delay": 0.1
    },
    {
      "type": "pause",
      "pause": 0.55
    },
    {
      "type": "entity_particles",
      "entityCondition": "q.entity.is_user == false && q.missed(q.entity.uuid) == false",
      "effect": "cobblemon:stunspore_land",
      "locators": ["target"],
      "delay": 0.1
    },
    {
      "type": "entity_particles",
      "entityCondition": "q.entity.is_user == false && q.missed(q.entity.uuid) == false",
      "effect": "cobblemon:paralysis_actor",
      "locators": ["middle"],
      "delay": 1
    },
    {
      "type": "remove_holds",
      "holds": ["effects"]
    },
    {
      "type": "pause",
      "pause": 1.95
    }
  ]
}